<?xml version="1.0" encoding="utf-8"?>
<!-- Generator: Adobe Illustrator 16.0.0, SVG Export Plug-In . SVG Version: 6.00 Build 0)  -->
<!DOCTYPE svg PUBLIC "-//W3C//DTD SVG 1.1//EN" "http://www.w3.org/Graphics/SVG/1.1/DTD/svg11.dtd">
<svg version="1.1" id="Layer_1" xmlns="http://www.w3.org/2000/svg" xmlns:xlink="http://www.w3.org/1999/xlink" x="0px" y="0px"
	 width="9px" height="11.002px" viewBox="0 0 9 11.002" enable-background="new 0 0 9 11.002" xml:space="preserve">
<path fill-rule="evenodd" clip-rule="evenodd" fill="#302F7B" d="M4.54,5.083c-0.82,0-1.48-0.57-1.48-1.27
	c0-0.7,0.66-1.27,1.48-1.27s1.489,0.57,1.489,1.27C6.029,4.512,5.36,5.083,4.54,5.083z M7.68,1.132c-1.76-1.51-4.6-1.51-6.36,0
	c-1.59,1.35-1.76,3.9-0.42,5.431l3.6,4.439l3.6-4.439C9.439,5.032,9.27,2.482,7.68,1.132z"/>
</svg>
