<?xml version="1.0" encoding="utf-8"?>
<!-- Generator: Adobe Illustrator 16.0.0, SVG Export Plug-In . SVG Version: 6.00 Build 0)  -->
<!DOCTYPE svg PUBLIC "-//W3C//DTD SVG 1.1//EN" "http://www.w3.org/Graphics/SVG/1.1/DTD/svg11.dtd">
<svg version="1.1" id="Layer_1" xmlns="http://www.w3.org/2000/svg" xmlns:xlink="http://www.w3.org/1999/xlink" x="0px" y="0px"
	 width="27px" height="27px" viewBox="0 0 27 27" enable-background="new 0 0 27 27" xml:space="preserve">
<g>
	<path fill="#EFEEEE" d="M13.5,0C6.04,0,0,6.04,0,13.5S6.04,27,13.5,27S27,20.96,27,13.5S20.96,0,13.5,0z"/>
	<path fill="#454545" d="M14.66,13.5l4.77-4.77c0.33-0.32,0.33-0.84,0-1.16c-0.32-0.33-0.84-0.33-1.16,0l-4.77,4.77L8.73,7.57
		c-0.32-0.33-0.84-0.33-1.16,0c-0.33,0.32-0.33,0.84,0,1.16l4.77,4.77l-4.77,4.77c-0.33,0.32-0.33,0.84,0,1.16
		c0.16,0.16,0.37,0.25,0.58,0.25s0.42-0.09,0.58-0.25l4.77-4.77l4.77,4.77c0.16,0.16,0.371,0.25,0.58,0.25
		c0.211,0,0.42-0.09,0.58-0.25c0.33-0.32,0.33-0.84,0-1.16L14.66,13.5z"/>
</g>
</svg>
