<svg id="Group_2" data-name="Group 2" xmlns="http://www.w3.org/2000/svg" width="17" height="17" viewBox="0 0 17 17">
  <path id="_copy" data-name=" copy" d="M17,1.426a.594.594,0,0,1-.17.4L8.892,9.828a.533.533,0,0,1-.784,0L.17,1.821a.594.594,0,0,1-.17-.4.594.594,0,0,1,.17-.4L1.022.172A.552.552,0,0,1,1.414,0a.584.584,0,0,1,.392.172L8.5,6.924,15.194.172a.533.533,0,0,1,.784,0l.852.859A.594.594,0,0,1,17,1.426Z"/>
  <path id="_copy-2" data-name=" copy" d="M17-1.426a.594.594,0,0,0-.17-.4L8.892-9.828A.584.584,0,0,0,8.5-10a.584.584,0,0,0-.392.172L.17-1.821a.594.594,0,0,0-.17.4.594.594,0,0,0,.17.4l.852.859A.552.552,0,0,0,1.414,0a.584.584,0,0,0,.392-.172L8.5-6.924,15.194-.172A.584.584,0,0,0,15.586,0a.584.584,0,0,0,.392-.172l.852-.859A.594.594,0,0,0,17-1.426Z" transform="translate(0 17)"/>
</svg>
