<?xml version="1.0" encoding="utf-8"?>
<!-- Generator: Adobe Illustrator 16.0.0, SVG Export Plug-In . SVG Version: 6.00 Build 0)  -->
<!DOCTYPE svg PUBLIC "-//W3C//DTD SVG 1.1//EN" "http://www.w3.org/Graphics/SVG/1.1/DTD/svg11.dtd">
<svg version="1.1" id="Layer_1" xmlns="http://www.w3.org/2000/svg" xmlns:xlink="http://www.w3.org/1999/xlink" x="0px" y="0px"
	 width="102px" height="23px" viewBox="0 0 102 23" enable-background="new 0 0 102 23" xml:space="preserve">
<g>
	<g>
		<rect x="0.5" y="0.5" fill-rule="evenodd" clip-rule="evenodd" fill="#24A8DE" width="100" height="22"/>
		<path fill="#24A8DE" d="M100.5,23H0.5C0.224,23,0,22.776,0,22.5v-22C0,0.224,0.224,0,0.5,0h100c0.276,0,0.5,0.224,0.5,0.5v22
			C101,22.776,100.776,23,100.5,23z M1,22h99V1H1V22z"/>
	</g>
	<g>
		<g>
			<rect x="81.5" y="0.5" fill-rule="evenodd" clip-rule="evenodd" fill="#FFFFFF" width="20" height="22"/>
			<path fill="#24A8DE" d="M101.5,23h-20c-0.276,0-0.5-0.224-0.5-0.5v-22C81,0.224,81.224,0,81.5,0h20c0.276,0,0.5,0.224,0.5,0.5v22
				C102,22.776,101.776,23,101.5,23z M82,22h19V1H82V22z"/>
		</g>
		<g>
			<path fill="#888888" d="M87,20c-0.553,0-1-0.447-1-1V4c0-0.552,0.447-1,1-1s1,0.448,1,1v15C88,19.553,87.553,20,87,20z"/>
		</g>
		<g>
			<path fill="#888888" d="M92,20c-0.553,0-1-0.447-1-1V4c0-0.552,0.447-1,1-1s1,0.448,1,1v15C93,19.553,92.553,20,92,20z"/>
		</g>
		<g>
			<path fill="#888888" d="M97,20c-0.553,0-1-0.447-1-1V4c0-0.552,0.447-1,1-1s1,0.448,1,1v15C98,19.553,97.553,20,97,20z"/>
		</g>
	</g>
	<g>
		<g>
			<path fill-rule="evenodd" clip-rule="evenodd" fill="#FFFFFF" d="M20.28,7.36C20.52,6.73,20.75,6.12,21,5.5l0.81,2.08l1.13,2.92
				h-3.88L20.28,7.36z M17.25,14.5l1.42-3h4.66l1.4,3h0.88l-4.02-10h-1.18l-4.02,10H17.25z"/>
		</g>
		<g>
			<path fill-rule="evenodd" clip-rule="evenodd" fill="#FFFFFF" d="M30.02,13.27c-0.25,0.15-0.57,0.23-0.94,0.23
				c-0.89,0-1.38-0.23-1.45-0.721c-0.1-0.469-0.13-1.229-0.13-2.279c0-1.03,0.05-1.8,0.16-2.28c0.09-0.47,0.61-0.72,1.51-0.72
				c0.33,0,0.61,0.09,0.85,0.25c0.21,0.17,0.39,0.42,0.48,0.75h1c-0.12-0.63-0.37-1.13-0.78-1.47C30.31,6.69,29.8,6.5,29.17,6.5
				c-0.51,0-0.98,0.16-1.4,0.47c-0.44,0.31-0.75,0.78-0.96,1.4C26.59,9,26.5,9.72,26.5,10.53c0,1.28,0.23,2.27,0.72,2.951
				c0.47,0.689,1.11,1.02,1.89,1.02c0.62,0,1.14-0.17,1.58-0.529c0.44-0.351,0.7-0.851,0.81-1.471h-1
				C30.44,12.84,30.27,13.109,30.02,13.27z"/>
		</g>
		<g>
			<path fill-rule="evenodd" clip-rule="evenodd" fill="#FFFFFF" d="M35.63,13.5c-0.3,0-0.54-0.029-0.69-0.09
				c-0.16-0.07-0.28-0.16-0.35-0.29c-0.06-0.101-0.09-0.37-0.09-0.78V7.5h2v-1h-2V3.97l-1,0.73v1.8h-1v1h1v4.56
				c0,0.81,0.05,1.35,0.17,1.6c0.11,0.25,0.31,0.449,0.6,0.609c0.28,0.15,0.67,0.23,1.17,0.23c0.31,0,0.65-0.029,1.06-0.09v-1.1
				C36.13,13.439,35.84,13.5,35.63,13.5z"/>
		</g>
		<g>
			<path fill-rule="evenodd" clip-rule="evenodd" fill="#FFFFFF" d="M38.5,14.5v-8h-1v8H38.5z M38.5,5.5v-1h-1v1H38.5z"/>
		</g>
		<g>
			<path fill-rule="evenodd" clip-rule="evenodd" fill="#FFFFFF" d="M43.38,14.5l3.25-8h-0.88l-2.27,4.89
				c-0.21,0.59-0.37,1.09-0.48,1.52c-0.16-0.57-0.31-1.1-0.48-1.61l-2.27-4.8h-1l3.41,8H43.38z"/>
		</g>
		<g>
			<path fill-rule="evenodd" clip-rule="evenodd" fill="#FFFFFF" d="M52.5,10.95c0,0.57-0.08,0.99-0.221,1.27
				c-0.189,0.37-0.479,0.67-0.869,0.92C51,13.391,50.56,13.5,50.06,13.5c-0.51,0-0.9-0.109-1.17-0.34
				c-0.26-0.221-0.39-0.52-0.39-0.88c0-0.22,0.05-0.42,0.17-0.61c0.13-0.19,0.3-0.33,0.52-0.42c0.22-0.09,0.61-0.27,1.15-0.52
				c0.96,0.04,1.68-0.04,2.16-0.23V10.95z M52.5,14.5h1v-1.061V10.97V9.14c0-0.59-0.029-1-0.061-1.19
				c-0.08-0.29-0.209-0.54-0.379-0.75C52.88,7,52.59,6.83,52.221,6.7C51.83,6.58,51.33,6.5,50.73,6.5c-0.62,0-1.15,0.08-1.62,0.23
				c-0.47,0.16-0.83,0.38-1.08,0.66c-0.25,0.28-0.44,0.66-0.53,1.11h1c0.14-0.38,0.36-0.63,0.67-0.78c0.3-0.14,0.77-0.22,1.41-0.22
				c0.67,0,1.19,0.16,1.55,0.47c0.25,0.23,0.37,0.62,0.37,1.17V9.5c-0.471,0.19-1.2,0.33-2.17,0.44c-0.49,0.06-0.85,0.14-1.08,0.2
				c-0.33,0.09-0.62,0.28-0.87,0.55c-0.27,0.28-0.49,0.53-0.65,0.75c-0.15,0.22-0.23,0.51-0.23,0.89c0,0.641,0.2,1.15,0.63,1.561
				c0.4,0.409,1.01,0.609,1.79,0.609c0.47,0,0.92-0.061,1.33-0.221c0.41-0.159,0.83-0.409,1.25-0.779V14.5z"/>
		</g>
		<g>
			<path fill-rule="evenodd" clip-rule="evenodd" fill="#FFFFFF" d="M57.63,13.5c-0.3,0-0.54-0.029-0.69-0.09
				c-0.16-0.07-0.279-0.16-0.35-0.29c-0.061-0.101-0.09-0.37-0.09-0.78V7.5h2v-1h-2V3.97l-1,0.73v1.8h-1v1h1v4.56
				c0,0.81,0.05,1.35,0.17,1.6c0.109,0.25,0.311,0.449,0.6,0.609c0.28,0.15,0.67,0.23,1.17,0.23c0.311,0,0.65-0.029,1.061-0.09v-1.1
				C58.13,13.439,57.84,13.5,57.63,13.5z"/>
		</g>
		<g>
			<path fill-rule="evenodd" clip-rule="evenodd" fill="#FFFFFF" d="M60.75,8.05c0.13-0.36,0.721-0.55,1.779-0.55
				c0.631,0,1.33,0.23,2.141,0.69c-0.17,0.29-0.23,0.73-0.17,1.31h-4C60.529,8.91,60.63,8.42,60.75,8.05z M63.75,13.27
				c-0.311,0.15-0.689,0.23-1.12,0.23c-1.18,0-1.819-0.25-1.909-0.77c-0.111-0.51-0.191-1.26-0.221-2.23h5v-0.31
				c0-1.16-0.279-2.07-0.83-2.72c-0.561-0.64-1.26-0.97-2.12-0.97c-0.909,0-1.64,0.36-2.21,1.08c-0.561,0.72-0.84,1.7-0.84,2.98
				c0,1.25,0.27,2.219,0.83,2.911c0.561,0.689,1.311,1.029,2.279,1.029c0.75,0,1.361-0.17,1.861-0.52c0.479-0.34,0.809-0.84,1-1.48
				h-0.99C64.3,12.84,64.061,13.109,63.75,13.27z"/>
		</g>
	</g>
</g>
</svg>
