<?xml version="1.0" encoding="utf-8"?>
<!-- Generator: Adobe Illustrator 16.0.0, SVG Export Plug-In . SVG Version: 6.00 Build 0)  -->
<!DOCTYPE svg PUBLIC "-//W3C//DTD SVG 1.1//EN" "http://www.w3.org/Graphics/SVG/1.1/DTD/svg11.dtd">
<svg version="1.1" id="Layer_1" xmlns="http://www.w3.org/2000/svg" xmlns:xlink="http://www.w3.org/1999/xlink" x="0px" y="0px"
	 width="32px" height="32px" viewBox="0 0 32 32" enable-background="new 0 0 32 32" xml:space="preserve">
<g>
	<g>
		<path fill="#FFCB26" d="M32,16c0,8.84-7.16,16-16,16S0,24.84,0,16S7.16,0,16,0S32,7.16,32,16z"/>
		<g>
			<path fill-rule="evenodd" clip-rule="evenodd" fill="#FFFFFF" d="M14.24,8.54c0-0.21,0.04-0.45,0.14-0.72
				c0.09-0.27,0.24-0.52,0.45-0.76c0.21-0.23,0.48-0.43,0.83-0.6c0.35-0.16,0.78-0.24,1.3-0.24c0.32,0,0.63,0.04,0.92,0.11
				c0.28,0.08,0.53,0.19,0.75,0.34c0.21,0.16,0.38,0.36,0.5,0.61c0.13,0.25,0.19,0.54,0.19,0.89c0,0.31-0.05,0.62-0.15,0.91
				c-0.1,0.3-0.27,0.56-0.49,0.79c-0.22,0.24-0.5,0.42-0.84,0.57c-0.34,0.14-0.74,0.21-1.21,0.21c-0.82,0-1.42-0.19-1.81-0.57
				C14.43,9.69,14.24,9.18,14.24,8.54z M20.45,22.819c-0.34,0.301-0.75,0.631-1.25,0.98c-0.49,0.35-1.03,0.67-1.6,0.96
				c-0.58,0.29-1.16,0.53-1.76,0.73c-0.6,0.19-1.16,0.29-1.7,0.29c-0.48,0-0.89-0.07-1.22-0.2c-0.32-0.14-0.59-0.33-0.79-0.57
				c-0.21-0.239-0.35-0.53-0.44-0.88s-0.13-0.73-0.13-1.14c0-0.591,0.06-1.271,0.2-2.04c0.13-0.77,0.3-1.57,0.49-2.4
				c0.19-0.83,0.4-1.66,0.62-2.48c0.22-0.83,0.41-1.58,0.57-2.28c0.07-0.24,0.2-0.45,0.39-0.62c0.2-0.17,0.42-0.31,0.66-0.41
				c0.25-0.11,0.5-0.19,0.77-0.24c0.26-0.05,0.5-0.08,0.71-0.08c0.39,0,0.66,0.08,0.79,0.22c0.14,0.14,0.21,0.33,0.21,0.58
				c0,0.2-0.04,0.49-0.14,0.88c-0.09,0.38-0.2,0.82-0.34,1.3l-0.45,1.57c-0.16,0.56-0.3,1.12-0.44,1.68s-0.26,1.11-0.35,1.64
				c-0.09,0.53-0.14,1.01-0.14,1.44c0,0.42,0.05,0.75,0.14,0.99c0.09,0.25,0.28,0.37,0.57,0.37c0.33,0,0.7-0.12,1.11-0.351
				c0.41-0.229,0.82-0.51,1.24-0.84c0.41-0.33,0.82-0.67,1.22-1.021c0.4-0.35,0.75-0.649,1.06-0.899V22.819z"/>
		</g>
	</g>
</g>
</svg>
