<?xml version="1.0" encoding="utf-8"?>
<!-- Generator: Adobe Illustrator 16.0.0, SVG Export Plug-In . SVG Version: 6.00 Build 0)  -->
<!DOCTYPE svg PUBLIC "-//W3C//DTD SVG 1.1//EN" "http://www.w3.org/Graphics/SVG/1.1/DTD/svg11.dtd">
<svg version="1.1" id="Layer_1" xmlns="http://www.w3.org/2000/svg" xmlns:xlink="http://www.w3.org/1999/xlink" x="0px" y="0px"
	 width="20px" height="17px" viewBox="0 0 20 17" enable-background="new 0 0 20 17" xml:space="preserve">
<g>
	<g>
		<path fill-rule="evenodd" clip-rule="evenodd" fill="#22A2DC" d="M2.66,6.26c0-1.97,1.54-3.58,3.43-3.58
			c1.891,0,3.42,1.61,3.42,3.58c0,1.98-1.529,3.58-3.42,3.58C4.2,9.84,2.66,8.24,2.66,6.26z"/>
		<path fill-rule="evenodd" clip-rule="evenodd" fill="#22A2DC" d="M12.17,17c0-3.51-2.72-6.359-6.08-6.359
			C2.73,10.641,0,13.49,0,17H12.17z"/>
	</g>
	<g>
		<path fill-rule="evenodd" clip-rule="evenodd" fill="#22A2DC" d="M10.49,3.58C10.49,1.6,12.02,0,13.91,0
			c1.89,0,3.43,1.6,3.43,3.58s-1.54,3.58-3.43,3.58C12.02,7.16,10.49,5.56,10.49,3.58z"/>
		<path fill-rule="evenodd" clip-rule="evenodd" fill="#22A2DC" d="M20,14.32c0-3.521-2.73-6.37-6.09-6.37
			c-1.75,0-3.34,0.78-4.45,2.03c2.021,0.581,3.62,2.23,4.21,4.34H20z"/>
	</g>
</g>
</svg>
