<svg xmlns="http://www.w3.org/2000/svg" width="29.912" height="16.208" viewBox="0 0 29.912 16.208">
  <g id="noun_drop_down_1123247" data-name="noun_drop down_1123247" transform="translate(47.5 50.028) rotate(180)">
    <path id="Path_16" data-name="Path 16" d="M32.544,50.028h0a1.254,1.254,0,0,1-.885-.367l-13.7-13.7a1.252,1.252,0,0,1,1.77-1.77l12.818,12.82L45.363,34.187a1.252,1.252,0,0,1,1.77,1.77l-13.7,13.7A1.253,1.253,0,0,1,32.544,50.028Z" transform="translate(0 0)"/>
  </g>
</svg>
