<svg xmlns="http://www.w3.org/2000/svg" width="15.771" height="9.2" viewBox="0 0 15.771 9.2">
  <path id="Icon" d="M11.885,16.2a1.311,1.311,0,0,1-.929-.385L4.385,9.243A1.314,1.314,0,0,1,6.243,7.385l5.642,5.642,5.642-5.642a1.314,1.314,0,1,1,1.858,1.858l-6.571,6.571a1.311,1.311,0,0,1-.929.385" transform="translate(-4 -7)"/>
</svg>
