<svg xmlns="http://www.w3.org/2000/svg" width="34.711" height="29.902" viewBox="0 0 34.711 29.902">
  <g id="Group_3" data-name="Group 3" transform="translate(0 0)">
    <path id="Clip_2" data-name="Clip 2" d="M0,0H34.711V29.9H0Z" transform="translate(0 0)" fill="none"/>
    <path id="Fill_1" data-name="Fill 1" d="M33.664,29.9h0a2.066,2.066,0,0,1-.347-.031,2.549,2.549,0,0,1-1.109-.49c-.232-.17-.471-.341-.7-.506-.46-.328-.934-.666-1.37-1.017a.884.884,0,0,0-.542-.256.834.834,0,0,0-.517.24c-.446.368-.938.716-1.415,1.053-.218.154-.441.312-.658.471a2.627,2.627,0,0,1-.984.471,2.266,2.266,0,0,1-.511.064,1.244,1.244,0,0,1-.721-.206.681.681,0,0,1-.243-.93,1.808,1.808,0,0,1,.648-.715c.229-.166.459-.337.682-.5.469-.349.951-.708,1.457-1.037.2-.133.3-.237.3-.34,0-.121-.128-.233-.322-.363-.494-.331-.973-.685-1.437-1.027-.214-.158-.436-.322-.656-.481a1.884,1.884,0,0,1-.659-.71.691.691,0,0,1,.212-.935,1.179,1.179,0,0,1,.73-.217,2.648,2.648,0,0,1,.5.055,2.41,2.41,0,0,1,.99.463c.461.339.934.681,1.39,1.011l.517.375c.349.253.524.38.7.38s.362-.132.725-.4l.624-.455c.434-.316.883-.644,1.329-.963a2.252,2.252,0,0,1,1.361-.461h.023c.663.007,1.047.287,1.053.768.011.372-.2.693-.673,1.04-.194.142-.39.288-.579.43-.5.375-1.017.76-1.56,1.109-.227.146-.328.26-.329.371s.1.226.352.392c.557.367,1.091.764,1.607,1.149.176.131.352.262.529.393a1.319,1.319,0,0,1,.647.91.731.731,0,0,1-.18.58A1.137,1.137,0,0,1,33.664,29.9ZM11.508,28.866c-1.934,0-3.546,0-5.073-.007C3.406,28.85.961,27.517.206,25.462A3.464,3.464,0,0,1,0,24.244c0-2.624,0-5.283,0-7.855V14.426q0-1.448,0-2.9v-.09C0,9.245,0,6.976,0,4.745.008,1.965,2.664.019,6.463.012,10.2,0,13.937,0,17.566,0s7.261,0,10.791.012A7.768,7.768,0,0,1,32.9,1.333a4.08,4.08,0,0,1,1.8,3.3c.01,3.508.007,7.071,0,10.517q0,1.683,0,3.366a1.118,1.118,0,0,1-1.252,1.132h-.022a1.364,1.364,0,0,1-.929-.317,1.09,1.09,0,0,1-.355-.839c0-1.207,0-2.432-.008-3.617-.01-3.306-.02-6.722.033-10.081A2.5,2.5,0,0,0,31.418,3a4.523,4.523,0,0,0-3.267-1.138h-.027c-3.772.013-7.439.02-10.9.02-3.619,0-7.17-.007-10.555-.022H6.636A4.46,4.46,0,0,0,3.314,2.994a2.625,2.625,0,0,0-.777,1.88c.064,6.3.064,12.741,0,19.134a2.615,2.615,0,0,0,.778,1.873,4.428,4.428,0,0,0,3.3,1.126h.072c1.529-.014,3.163-.02,5.142-.02,1.374,0,2.77,0,4.12.006q1.737,0,3.474.006c.821,0,1.342.254,1.466.715a.735.735,0,0,1-.087.6,1.266,1.266,0,0,1-.885.5,4.127,4.127,0,0,1-.683.047l-3.2,0Zm4.178-9.915H11.609c-.6,0-1.083,0-1.529,0-.853-.005-1.408-.361-1.416-.907a.758.758,0,0,1,.229-.549,1.637,1.637,0,0,1,1.156-.4c1.193-.007,2.4-.011,3.6-.011s2.405,0,3.6.011a1.612,1.612,0,0,1,1.154.4.762.762,0,0,1,.229.551c-.007.546-.563.9-1.415.906C16.768,18.95,16.282,18.951,15.686,18.951Zm8.888-5.393h-.016q-1.818,0-3.637,0H13.033l-2.834,0c-.973,0-1.533-.335-1.535-.917a.789.789,0,0,1,.411-.684,2.128,2.128,0,0,1,1.114-.26l5.792,0h8.567c.728,0,1.189.2,1.409.607a.727.727,0,0,1-.3,1.005A1.759,1.759,0,0,1,24.574,13.559Zm-.012-5.4H10.2c-.974,0-1.535-.334-1.54-.913a.734.734,0,0,1,.224-.538,1.828,1.828,0,0,1,1.3-.408q3.392,0,6.784,0,3.787,0,7.575,0c.751,0,1.25.221,1.445.64A.82.82,0,0,1,25.517,8,1.994,1.994,0,0,1,24.563,8.163Z" transform="translate(0 0)"/>
  </g>
</svg>
