<svg xmlns="http://www.w3.org/2000/svg" width="17" height="12" viewBox="0 0 17 12">
  <g id="Symbols" transform="translate(-4 -1)">
    <g id="Overview" transform="translate(-221 -136)">
      <g id="Group" transform="translate(57 124)">
        <g id="Group-9" transform="translate(164 12)">
          <path id="Fill-7" d="M9.814,13,4,7.24l.946-.92L9.825,11.16,20.076,1,21,1.914,9.814,13" fill="#323232" fill-rule="evenodd"/>
        </g>
      </g>
    </g>
  </g>
</svg>
