<svg xmlns="http://www.w3.org/2000/svg" xmlns:xlink="http://www.w3.org/1999/xlink" width="20.974" height="16.865" viewBox="0 0 20.974 16.865">
  <defs>
    <clipPath id="clip-path">
      <path id="Path_160" data-name="Path 160" d="M497-28.865h20.974V-12H497Z" transform="translate(-497 28.865)" fill="none" clip-rule="evenodd"/>
    </clipPath>
    <clipPath id="clip-path-2">
      <rect id="Rectangle_82" data-name="Rectangle 82" width="23" height="19" fill="none"/>
    </clipPath>
    <clipPath id="clip-path-3">
      <path id="Path_159" data-name="Path 159" d="M506.93-16.3l11.044-10.778-.912-.888-10.121,9.878L502.124-22.8l-.934.895,5.74,5.6Zm5.977-4.119a7.2,7.2,0,0,1-6.286,7.051,7.309,7.309,0,0,1-7.768-4.413,7.032,7.032,0,0,1,2.571-8.475,7.113,7.113,0,0,1,4.521-1.293,7.3,7.3,0,0,1,5.331,2.621l1.01-.806a8.7,8.7,0,0,0-10.621-2.184,8.332,8.332,0,0,0-4.012,10.7,8.643,8.643,0,0,0,10.507,4.836,8.368,8.368,0,0,0,6.039-8.038Z" transform="translate(-497 28.865)" fill="none" clip-rule="evenodd"/>
    </clipPath>
    <clipPath id="clip-path-4">
      <path id="Path_158" data-name="Path 158" d="M497-12h21V-29H497Z" transform="translate(-497 29)" fill="none"/>
    </clipPath>
  </defs>
  <g id="Group_276" data-name="Group 276" clip-path="url(#clip-path)">
    <g id="Group_275" data-name="Group 275" transform="translate(-2 -1.135)" style="isolation: isolate">
      <g id="Group_274" data-name="Group 274" clip-path="url(#clip-path-2)">
        <g id="Group_273" data-name="Group 273" transform="translate(2 1.135)" clip-path="url(#clip-path-3)">
          <g id="Group_272" data-name="Group 272" transform="translate(0 -0.135)" clip-path="url(#clip-path-4)">
            <path id="Path_157" data-name="Path 157" d="M492-33.865h30.974V-7H492Z" transform="translate(-497 29)" fill="#565655"/>
          </g>
        </g>
      </g>
    </g>
  </g>
</svg>
