<svg xmlns="http://www.w3.org/2000/svg" xmlns:xlink="http://www.w3.org/1999/xlink" width="35" height="35" viewBox="0 0 35 35">
  <defs>
    <clipPath id="clip-path">
      <path id="Path_33" data-name="Path 33" d="M128.5-45A17.5,17.5,0,0,0,146-62.5,17.5,17.5,0,0,0,128.5-80,17.5,17.5,0,0,0,111-62.5,17.5,17.5,0,0,0,128.5-45Z" fill="none"/>
    </clipPath>
    <clipPath id="clip-path-2">
      <path id="Path_32" data-name="Path 32" d="M0,0H314V-488H0Z" fill="none"/>
    </clipPath>
    <clipPath id="clip-path-3">
      <path id="Path_36" data-name="Path 36" d="M121.064-57.864V-64.28c.029.024.059.045.089.068,1.4,1,2.891,2.073,4.322,3.183a5.211,5.211,0,0,0,3.035,1.4,5.2,5.2,0,0,0,3.013-1.4c1.454-1.128,2.994-2.234,4.33-3.187l.087-.067.049,6.367Zm14.858-10.273a.887.887,0,0,1,.015.253l0,.1a3.33,3.33,0,0,1-1.349,2.055q-2.048,1.487-4.088,3l-.278.217a4.066,4.066,0,0,1-1.73.979,4.122,4.122,0,0,1-1.711-.98l-.28-.218c-1.353-1-2.719-2-4.083-2.993a3.01,3.01,0,0,1-1.35-2.354ZM135.989-70h-14.98A1.942,1.942,0,0,0,119-68.136v10.273A1.942,1.942,0,0,0,121.009-56h14.98A1.943,1.943,0,0,0,138-57.864V-68.136A1.943,1.943,0,0,0,135.989-70Z" fill="none" clip-rule="evenodd"/>
    </clipPath>
  </defs>
  <g id="Group_335" data-name="Group 335" transform="translate(-111 80)">
    <g id="Group_139" data-name="Group 139" clip-path="url(#clip-path)">
      <g id="Group_138" data-name="Group 138" clip-path="url(#clip-path-2)">
        <path id="Path_31" data-name="Path 31" d="M106-85h45v45H106Z" fill="#211914"/>
      </g>
    </g>
    <g id="Group_141" data-name="Group 141" clip-path="url(#clip-path-3)">
      <g id="Group_140" data-name="Group 140" clip-path="url(#clip-path-2)">
        <path id="Path_34" data-name="Path 34" d="M114-75h29v24H114Z" fill="#fff"/>
      </g>
    </g>
  </g>
</svg>
