<svg xmlns="http://www.w3.org/2000/svg" width="13.9" height="19.171" viewBox="0 0 13.9 19.171">
  <path id="Stroke_1" data-name="Stroke 1" d="M6.5,18h0C6.434,17.917,0,9.722,0,6.3A6.409,6.409,0,0,1,6.5,0,6.409,6.409,0,0,1,13,6.3C13,9.722,6.566,17.917,6.5,18Zm0-14.814A3.178,3.178,0,0,0,3.278,6.31,3.177,3.177,0,0,0,6.5,9.433,3.177,3.177,0,0,0,9.722,6.31,3.178,3.178,0,0,0,6.5,3.186Z" transform="translate(0.45 0.45)" fill="none" stroke="#c6c6c6" stroke-miterlimit="10" stroke-width="0.9"/>
</svg>
