<svg xmlns="http://www.w3.org/2000/svg" width="11" height="2" viewBox="0 0 11 2">
  <path id="minus" d="M9.5.25H.5" transform="translate(0.5 0.75)" fill="none" stroke="#191515" stroke-linecap="square" stroke-miterlimit="10" stroke-width="2"/>
</svg>
