<svg xmlns="http://www.w3.org/2000/svg" xmlns:xlink="http://www.w3.org/1999/xlink" width="35" height="35" viewBox="0 0 35 35">
  <defs>
    <clipPath id="clip-path">
      <path id="Path_39" data-name="Path 39" d="M181.5-45A17.5,17.5,0,0,0,199-62.5,17.5,17.5,0,0,0,181.5-80,17.5,17.5,0,0,0,164-62.5,17.5,17.5,0,0,0,181.5-45Z" fill="none"/>
    </clipPath>
    <clipPath id="clip-path-2">
      <path id="Path_38" data-name="Path 38" d="M0,0H314V-488H0Z" fill="none"/>
    </clipPath>
    <clipPath id="clip-path-3">
      <path id="Path_42" data-name="Path 42" d="M189.1-58.679c-.648-.318-1.308-.626-1.944-.954a2.46,2.46,0,0,0-1.01-.458c-.694,0-1.7,1.8-2.319,1.8a2.638,2.638,0,0,1-.977-.389,10.708,10.708,0,0,1-4.646-4.066c-.159-.239-.445-.586-.445-.854,0-.538,2.058-1.423,2.058-2.03,0-.307-.341-.626-.524-.884-.374-.557-.727-1.133-1.09-1.7-.115-.2-.365-.686-.6-.755a.636.636,0,0,0-.238-.031,5.671,5.671,0,0,0-1.578.309,2.756,2.756,0,0,0-1.2,1.212A3.441,3.441,0,0,0,174-65.63a6.942,6.942,0,0,0,.784,2.6,8.749,8.749,0,0,0,.945,1.741,18.181,18.181,0,0,0,5.453,4.772,11.279,11.279,0,0,0,1.989.827,9.806,9.806,0,0,0,2.977.686,4.809,4.809,0,0,0,2.114-.508,2.915,2.915,0,0,0,1.386-1.054A3.961,3.961,0,0,0,190-57.943a.435.435,0,0,0-.035-.208c-.079-.209-.636-.428-.863-.528" fill="none" clip-rule="evenodd"/>
    </clipPath>
  </defs>
  <g id="Group_336" data-name="Group 336" transform="translate(-164 80)">
    <g id="Group_143" data-name="Group 143" clip-path="url(#clip-path)">
      <g id="Group_142" data-name="Group 142" clip-path="url(#clip-path-2)">
        <path id="Path_37" data-name="Path 37" d="M159-85h45v45H159Z" fill="#211914"/>
      </g>
    </g>
    <g id="Group_145" data-name="Group 145" clip-path="url(#clip-path-3)">
      <g id="Group_144" data-name="Group 144" clip-path="url(#clip-path-2)">
        <path id="Path_40" data-name="Path 40" d="M169-74h26v24H169Z" fill="#fff"/>
      </g>
    </g>
  </g>
</svg>
