<svg xmlns="http://www.w3.org/2000/svg" width="12.9" height="19.213" viewBox="0 0 12.9 19.213">
  <path id="Stroke_1" data-name="Stroke 1" d="M6,18H6c-.06-.082-6-8.277-6-11.7A6.163,6.163,0,0,1,6,0a6.162,6.162,0,0,1,6,6.3C12,9.722,6.061,17.917,6,18ZM6,3A3,3,0,1,0,9,6,3,3,0,0,0,6,3Z" transform="translate(0.45 0.45)" fill="none" stroke="#000" stroke-miterlimit="10" stroke-width="0.9"/>
</svg>
