<svg xmlns="http://www.w3.org/2000/svg" width="37.044" height="29.362" viewBox="0 0 37.044 29.362">
  <g id="Group_333" data-name="Group 333" transform="translate(0)">
    <g id="Group_3" data-name="Group 3" transform="translate(0 11.255)">
      <path id="Clip_2" data-name="Clip 2" d="M0,0H37.044V17.622H0Z" transform="translate(0 0.484)" fill="none"/>
      <path id="Fill_1" data-name="Fill 1" d="M9.258,17.622H9.184a6.434,6.434,0,0,1-3.066-.76,3.882,3.882,0,0,1-1.8-1.959c-.072-.186-.166-.291-.48-.35C1.544,14.124,0,12.691,0,10.985,0,8.838,0,6.3,0,3.758,0,1.625,2.257.011,5.242,0c1.624,0,3.38,0,5.525,0H26.11c2.228,0,4.041,0,5.7,0,2.435,0,4.471,1.12,5.068,2.776a2.766,2.766,0,0,1,.161.953q0,1.606,0,3.212v.007c0,1.313,0,2.672,0,4.008a3.1,3.1,0,0,1-1.057,2.293,5.673,5.673,0,0,1-2.839,1.308.443.443,0,0,0-.413.334l-.007.017a4.914,4.914,0,0,1-4.35,2.693c-.178.011-.358.017-.534.017a5.551,5.551,0,0,1-4.714-2.1,2.821,2.821,0,0,1-.155-.251l0,0c-.3-.568-.3-.568-1.175-.569H18.634c-1.236,0-2.553,0-3.879-.005h-.014c-.325,0-.459.071-.552.291C13.51,16.587,11.575,17.622,9.258,17.622Zm0-5.868H9.241a3.585,3.585,0,0,0-2.5.935,1.8,1.8,0,0,0-.562,1.291c.011,1.2,1.394,2.178,3.082,2.18a3.6,3.6,0,0,0,2.519-.927,1.8,1.8,0,0,0,.571-1.281C12.344,12.74,10.96,11.755,9.262,11.755Zm18.494,0c-1.69,0-3.063.987-3.061,2.193s1.382,2.209,3.078,2.21h.009c1.73,0,3.084-.973,3.083-2.209,0-1.209-1.392-2.193-3.1-2.193ZM6.379,1.482q-.592,0-1.184,0C3.4,1.493,2.08,2.434,2.053,3.722c-.006.268,0,.541,0,.8,0,.334.006.679-.007,1.018A.333.333,0,0,0,2.11,5.8a.524.524,0,0,0,.381.1h.031c.475-.007.994-.011,1.635-.011l1.012,0h.011l1,0h2c.674,0,1.218,0,1.711.006h.018a.459.459,0,0,0,.333-.082A.279.279,0,0,0,10.3,5.6c-.014-1.38-.013-2.628,0-3.815a.29.29,0,0,0-.064-.221c-.059-.06-.165-.085-.355-.085H9.867c-.456,0-.956,0-1.574,0H6.379Zm6.354,0h0c-.177,0-.277.024-.331.079a.281.281,0,0,0-.059.214c.014,1.428.014,2.677,0,3.82a.29.29,0,0,0,.063.218c.058.059.163.084.362.084h.015c.8,0,1.644-.006,2.744-.006h6.1c1.015,0,1.837,0,2.586.005h.03a.563.563,0,0,0,.4-.09.319.319,0,0,0,.068-.241c-.026-1.305-.017-2.638-.006-3.785a.288.288,0,0,0-.058-.22c-.054-.055-.153-.079-.33-.079-1.854,0-3.8.007-5.787.007-1.84,0-3.787,0-5.787-.006h-.006Zm14.011,2.2h0q0,.265,0,.53c0,.457,0,.929-.006,1.394a.269.269,0,0,0,.058.207.427.427,0,0,0,.311.08c1.242,0,2.519-.005,3.905-.005q1.8,0,3.61,0c.174,0,.267-.022.319-.075A.23.23,0,0,0,35,5.64c-.006-.273,0-.55,0-.818,0-.4.009-.806-.015-1.208-.07-1.188-1.337-2.1-2.946-2.123-.538-.008-1.113-.011-1.864-.011H29.077l-1.071,0-.881,0h-.011a.433.433,0,0,0-.317.078.258.258,0,0,0-.056.2c.011.461.009.929.007,1.381q0,.271,0,.543Z" transform="translate(0 0.484)"/>
    </g>
    <path id="Fill_4" data-name="Fill 4" d="M6.62,4.413H1.905c-.241,0-.482,0-.723,0C.454,4.4-.01,4.1,0,3.662s.463-.716,1.164-.729c.273,0,.547,0,.82,0q2.12,0,4.24,0a.783.783,0,0,0,.509-.1c-.76-.522-1.513-1.03-2.252-1.549C4.053.982,4,.629,4.309.325A1.25,1.25,0,0,1,5.823.2q2.116,1.48,4.19,2.99c.421.306.39.693-.053,1.012Q7.927,5.667,5.872,7.118a1.266,1.266,0,0,1-1.424.016A.572.572,0,0,1,4.434,6.1C5.178,5.561,5.945,5.043,6.7,4.518l-.082-.1" transform="translate(20.575)"/>
    <path id="Fill_6" data-name="Fill 6" d="M3.655,2.938H8.512c.209,0,.418,0,.627,0,.7.006,1.15.29,1.158.725S9.868,4.4,9.163,4.4c-1.671,0-3.343,0-5.015,0H3.676c-.049.139.1.178.18.236.652.476,1.316.943,1.965,1.42.465.343.475.764.046,1.069a1.272,1.272,0,0,1-1.491-.048q-2-1.418-3.991-2.846c-.51-.366-.516-.751-.01-1.115Q2.362,1.69,4.365.272A1.275,1.275,0,0,1,5.895.239c.408.3.377.726-.1,1.066-.73.517-1.472,1.024-2.208,1.535l.073.1" transform="translate(8.224 2.937)"/>
  </g>
</svg>
